{
  "name": "Consumer",
  "plural": "Consumers",
  "base": "PersistedModel",
  "idInjection": true,
  "options": {
    "validateUpsert": true
  },
  "properties": {
    "age": {
      "type": "string",
      "required": false
    },
    "gender": {
      "type": "string",
      "required": false
    },
    "image": {
      "type": "string",
      "required": false
    },
    "name": {
      "type": "string",
      "required": false
    }
  },
  "validations": [],
  "relations": {},
  "acls": [],
  "methods": {}
}
